<svg width="20" height="20" viewBox="0 0 20 20" fill="none" xmlns="http://www.w3.org/2000/svg">
    <path d="M18.9885 9.17194V9.99941C18.9874 11.939 18.3594 13.8262 17.1981 15.3796C16.0368 16.9331 14.4044 18.0695 12.5445 18.6194C10.6845 19.1694 8.69663 19.1033 6.87728 18.4312C5.05793 17.759 3.50459 16.5167 2.44894 14.8897C1.39329 13.2626 0.891881 11.3378 1.0195 9.40247C1.14711 7.46713 1.89691 5.6249 3.15708 4.15051C4.41724 2.67612 6.12024 1.64858 8.0121 1.22114C9.90396 0.793702 11.8833 0.989261 13.6549 1.77866"
          stroke-width="2" stroke-linecap="round" stroke-linejoin="round"/>
    <path d="M18.9894 2.8042L9.99515 11.8075L7.29688 9.10918" stroke-width="2" stroke-linecap="round"
          stroke-linejoin="round"/>
</svg>